20101
35000
42007
20101
34000
42010
40013
51000
1.5707963267948966192313216916397514420985846996875529104874722961539082031431044993140174126710585339910740432566411533235469223
43000
51000
-1.5707963267948966192313216916397514420985846996875529104874722961539082031431044993140174126710585339910740432566411533235469223
43000
22099
500000
22098
00001
22097
00001
20101
21096
21091
21095
20098
31099
41027
40065
20097
39000
00002
21094
20097
39000
00002
34000
33094
21093
20097
39000
00002
35000
21092
20097
35000
39000
00002
34000
33092
32093
33091
33091
21090
20096
33090
21096
20095
30096
21095
20097
34000
21097
20098
34000
21098
31099
41027
50095
43000